File_Version	1
null	488783	18474	Purdue HN	Purdue University	Purdue	USA	INST-U-2984
null	488640	18474	MTA (10)*	Mount Allison University	Mount Allison	CAN	INST-U-1299
null	488787	18474	Cornell-Semicolon	Cornell University	Cornell	USA	INST-U-0609
null	488707	18474	Waterloo Black	University of Waterloo	U Waterloo	CAN	INST-U-2312
null	488705	18474	U of T Gold	University of Toronto	U of Toronto	CAN	INST-U-2302
null	488625	18474	Rutgers - 5 Hour Energy	Rutgers University	Rutgers Uni.	USA	INST-U-1549
null	488631	18474	NJIT - Team 1	New Jersey Institute of Technology	NJIT	USA	INST-U-1362
null	488696	18474	CWRU White	Case Western Reserve University	CWRU	USA	INST-U-0521
null	488630	18474	Stevens-1	Stevens Institute of Technology	Stevens Tech	USA	INST-U-1771
null	488636	18474	NEU 1	Northeastern University	NEU	USA	INST-U-19023
null	488634	18474	MIT ZEROONE	Massachusetts Institute of Technology	MIT	USA	INST-U-1220
null	488842	18474	UPEI Panthers CSW	University of Prince Edward Island	UPEI	CAN	INST-U-1945
null	488637	18474	Rochester #1	University of Rochester	U Rochester	USA	INST-U-2257
null	488788	18474	SBU-What’s a DP?	SUNY Stony Brook	SUNY Stony Brook	USA	INST-U-1785
null	488708	18474	Waterloo Red	University of Waterloo	U Waterloo	CAN	INST-U-2312
null	488694	18474	CMU1	Carnegie Mellon University	Carnegie Mellon	USA	INST-U-0519
null	488626	18474	SBU-Bitmasked Bandits	SUNY Stony Brook	SUNY Stony Brook	USA	INST-U-1785
null	488627	18474	Yale-Yale	Yale University	Yale	USA	INST-U-2437
null	488786	18474	Cooper-LamLeeZhang	The Cooper Union for the Advancement of Science and Art	Cooper Union	USA	INST-U-1855
null	488704	18474	U of T Blue	University of Toronto	U of Toronto	CAN	INST-U-2302
null	488695	18474	CMU2	Carnegie Mellon University	Carnegie Mellon	USA	INST-U-0519
null	488624	18474	Team C	Princeton University	Princeton	USA	INST-U-3897
null	488628	18474	Columbia-[Runtime Terror]	Columbia University	Columbia U	USA	INST-U-0641
null	488638	18474	Harvard 1	Harvard University	Harvard	USA	INST-U-0861
null	488639	18474	CICS-2	CICS UMass-Amherst	CICS UMass-Amherst	USA	INST-U-21032
null	488633	18474	MIT ZEROFOUR	Massachusetts Institute of Technology	MIT	USA	INST-U-1220
null	488632	18474	Team D	Princeton University	Princeton	USA	INST-U-3897
null	488635	18474	Bees	McGill University	McGill U	CAN	INST-U-1225
null	488642	18474	Harvard 2	Harvard University	Harvard	USA	INST-U-0861
null	488702	18474	gameisez	University of Cincinnati	U of Cincinnati	USA	INST-U-2141
null	488699	18474	Sublinear Substring Seekers	Ohio State University	Ohio State U.	USA	INST-U-1414
null	488700	18474	Purdue RE	Purdue University	Purdue	USA	INST-U-2984
null	488698	18474	CWRU Black	Case Western Reserve University	CWRU	USA	INST-U-0521
null	488782	18474	Uncountably Many Squirrels	Ohio State University	Ohio State U.	USA	INST-U-1414
null	488629	18474	Rutgers - 6 Hour Energy	Rutgers University	Rutgers Uni.	USA	INST-U-1549
null	488815	18474	Rochester #2	University of Rochester	U Rochester	USA	INST-U-2257
null	488784	18474	Valiant	University of Michigan at Ann Arbor	U Michigan	USA	INST-U-2195
null	488703	18474	Victors	University of Michigan at Ann Arbor	U Michigan	USA	INST-U-2195
null	488643	18474	NEU Alpha	Northeastern University	NEU	USA	INST-U-19023
null	488706	18474	UTSC A	University of Toronto Scarborough	UTSC	CAN	INST-U-6317
null	488779	18474	Cornell-j^2	Cornell University	Cornell	USA	INST-U-0609
null	488826	18474	Cooper-AkhmetovFriedmanGoldfarb	The Cooper Union for the Advancement of Science and Art	Cooper Union	USA	INST-U-1855
null	488759	18473	teamname or NP = D?(AdjP)*N(PP)*	University of Wisconsin - Madison	U Wisconsin - Madison	USA	INST-U-2317
null	488735	18473	TruWarriorss	Truman State University	TSU	USA	INST-U-6312
null	488730	18473	CUCBatKnights	Concordia University Chicago	CUC	USA	INST-U-19597
null	488822	18473	York Red	York University	York U.	CAN	INST-U-2452
null	488751	18473	UManitoba 2	University of Manitoba	U Manitoba	CAN	INST-U-3230
null	488821	18473	Golden Badgers	Brock University	Brock U.	CAN	INST-U-0484
null	488798	18473	UofL Cards Red	University of Louisville	UofL	USA	INST-U-2183
null	488757	18473	USD A	The University of South Dakota	USD	USA	INST-U-1883
null	488740	18473	VU Team 4	Vanderbilt University	Vanderbilt	USA	INST-U-3170
null	488760	18473	GNS-Software	University of Wisconsin - Madison	U Wisconsin - Madison	USA	INST-U-2317
null	488746	18473	CY2	Iowa State University	Iowa State U	USA	INST-U-1003
null	488739	18473	UofL Cards Black	University of Louisville	UofL	USA	INST-U-2183
null	488732	18473	Hendrix Black	Hendrix College	Hendrix	USA	INST-U-0870
null	488745	18473	Dunder Mifflin Scranton	Dakota State University	DSU	USA	INST-U-0622
null	488755	18473	<insert team name here>	University of Nebraska - Lincoln	U Nebraska - Lincoln	USA	INST-U-2207
null	488736	18473	UIUC B	University of Illinois at Urbana-Champaign	U Illinois at U-C	USA	INST-U-2170
null	489566	18473	DSU Trojans 2	Dakota State University	DSU	USA	INST-U-0622
null	488838	18473	Hardrockers	South Dakota School of Mines and Technology	SDSM&T	USA	INST-U-1697
null	488824	18473	ViTorch	New York University	NYU	USA	INST-U-1367
null	488814	18473	UManitoba 12	University of Manitoba	U Manitoba	CAN	INST-U-3230
null	488747	18473	MTU Orange	Michigan Technological University	Michigan Tech	USA	INST-U-1241
null	488742	18473	Vector Change	Washington University in St. Louis	Washington U - St. Louis	USA	INST-U-2393
null	488825	18473	Poly 1	Polytechnic University	Polytech	USA	INST-U-1484
null	488823	18473	Hunter 1	Hunter College of the City University of New York	Hunter	USA	INST-U-19471
null	488737	18473	UIUC D	University of Illinois at Urbana-Champaign	U Illinois at U-C	USA	INST-U-2170
null	488836	18473	S&T Gold	Missouri University of Science and Technology	MST	USA	INST-U-6323
null	488752	18473	Team Pho	University of Minnesota - Twin Cities	U Minnesota - TC	USA	INST-U-2231
null	488753	18473	Social Coding	University of Minnesota - Twin Cities	U Minnesota - TC	USA	INST-U-2231
null	488750	18473	HAT-trick	St. Olaf College		USA	INST-U-3267
null	488819	18473	Redhawk2	Southeast Missouri State University	SEMO	USA	INST-U-19093
null	488748	18473	Kotlinaughts	Milwaukee School of Engineering	MSOE	USA	INST-U-4859
null	488834	18473	Golden Rams 3	West Chester University	WCU	USA	INST-U-0262
null	488820	18473	Redhawk1	Southeast Missouri State University	SEMO	USA	INST-U-19093
null	488738	18473	uky-bbb	University of Kentucky	U of Kentucky	USA	INST-U-2178
null	488741	18473	VU Team 2	Vanderbilt University	Vanderbilt	USA	INST-U-3170
null	488744	18473	Carleton Infinite Recursion	Carleton College	Carleton	USA	INST-U-0517
null	488743	18473	Dark Matter	Washington University in St. Louis	Washington U - St. Louis	USA	INST-U-2393
null	488758	18473	localMaxima	University of Winnipeg	UWinnipeg	CAN	INST-U-5275
null	488734	18473	RHIT Fighting Engineers Red	Rose-Hulman Institute of Technology	Rose-Hulman	USA	INST-U-0209
null	488733	18473	LAN	Northwestern University	Northwestern	USA	INST-U-3182
null	488731	18473	Demons	Depaul University	Depaul U.	USA	INST-U-0642
null	488749	18473	CinCity	Milwaukee School of Engineering	MSOE	USA	INST-U-4859
null	488592	18476	UCLA Ice Cream Sandwich	University of California Los Angeles	UCLA	USA	INST-U-2131
null	488590	18476	Red	University of Calgary	U Calgary	CAN	INST-U-2168
null	488588	18476	Utah Z	University of Utah	Utah	USA	INST-U-2308
null	488619	18476	UBC O(1)	University Of British Columbia Okanagan	UBCO	CAN	INST-U-7239
null	488606	18476	gradient descent	California Institute of Technology	Caltech	USA	INST-U-0501
null	488622	18476	DigiPen	DigiPen Institute of Technology	DigiPen	USA	INST-U-0655
null	488841	18476	UWPT1	University of Wisconsin - Platteville	UWP	USA	INST-U-2320
null	488840	18476	Macalester Red	Macalester College	Macalester	USA	INST-U-1199
null	488609	18476	SOTU	California Institute of Technology	Caltech	USA	INST-U-0501
null	488595	18476	UCLA Gingerbread	University of California Los Angeles	UCLA	USA	INST-U-2131
null	488591	18476	UCSD Team 1	University of California San Diego	UC San Diego	USA	INST-U-2127
null	488549	18476	byu-ints	Brigham Young University	BYU	USA	INST-U-0481
null	488843	18476	Jerry Lee fan club	San Jose State University		USA	INST-U-3259
null	488818	18476	Comprehension	University of California Irvine	UC Irvine	USA	INST-U-0184
null	488550	18476	University of Lethbridge WA	University of Lethbridge	U Lethbridge	CAN	INST-U-0148
null	488617	18476	SFU_Lavender	Simon Fraser University	SFU	CAN	INST-U-1679
null	488839	18476	Runtime Terror	Creighton University	Creighton	USA	INST-U-0611
null	488852	18476	USC Cardinal	University of Southern California	USC	USA	INST-U-0149
null	488612	18476	UBC************	University of British Columbia	U British Columbia	CAN	INST-U-2124
null	488611	18476	DA_Flint	De Anza College	De Anza	USA	INST-U-6880
null	488589	18476	Utah Y	University of Utah	Utah	USA	INST-U-2308
null	488548	18476	Alberta Gray	University of Alberta	U Alberta	CAN	INST-U-2112
null	488858	18476	Green	University of Calgary	U Calgary	CAN	INST-U-2168
null	488816	18476	byu-chars	Brigham Young University	BYU	USA	INST-U-0481
null	488608	18476	Map	University of California Irvine	UC Irvine	USA	INST-U-0184
null	488593	18476	UCSD - Forgot to Register	University of California San Diego	UC San Diego	USA	INST-U-2127
null	488610	18476	UCR RGBmoon	University of California Riverside	UCR	USA	INST-U-2132
null	488817	18476	Mines Team 1	Colorado School of Mines	Mines	USA	INST-U-0602
null	488594	18476	USC Trojans	University of Southern California	USC	USA	INST-U-0149
null	490007	18476	alias cd='rm -rf *.*'	Colorado Mesa University	MSC	USA	INST-U-1233
null	488851	18476	SBCC Yellow	Santa Barbara City College	SBCC	USA	INST-U-1590
null	488551	18476	Alberta Purple	University of Alberta	U Alberta	CAN	INST-U-2112
null	488615	18476	Berkeley Blue	University of California at Berkeley	UC Berkeley	USA	INST-U-2129
null	488614	18476	Immunity	University of Washington	U of Washington	USA	INST-U-2311
null	488616	18476	Stanford Cardinal	Stanford University	Stanford	USA	INST-U-0150
null	488613	18476	Blank	University of British Columbia	U British Columbia	CAN	INST-U-2124
null	488847	18476	USAFA - Team 1	United States Air Force Academy	USAFA	USA	INST-U-1941
null	488846	18476	A Magnetized Needle And A Steady Hand	Colorado School of Mines	Mines	USA	INST-U-0602
null	488623	18476	SFU_Azure	Simon Fraser University	SFU	CAN	INST-U-1679
null	488618	18476	1-gon di-gon dra-gon	University of Washington	U of Washington	USA	INST-U-2311
null	488620	18476	Stanford White	Stanford University	Stanford	USA	INST-U-0150
null	488621	18476	Berkeley Gold	University of California at Berkeley	UC Berkeley	USA	INST-U-2129
null	488835	18476	FSU Broncos	Fayetteville State University	FSU	USA	INST-U-0767
null	488605	18475	Garbage Collectors	Florida Institute of Technology	Florida Tech	USA	INST-U-0786
null	488718	18475	UMD Black	University of Maryland	U Maryland	USA	INST-U-2189
null	488719	18475	UMD Red	University of Maryland	U Maryland	USA	INST-U-2189
null	488711	18475	team 1	Duke University	Duke	USA	INST-U-0677
null	488768	18475	tamoo	Texas A&M University	Texas A&M	USA	INST-U-1841
null	488724	18475	Team 2	Virginia Tech	Virginia Tech	USA	INST-U-2368
null	488775	18475	Aleph Naught	University of Tulsa	Tulsa	USA	INST-U-2306
null	488773	18475	UT Brown	The University of Texas at Austin	UT Austin	USA	INST-U-2290
null	488770	18475	👌 whoosh 👌	The University of Texas at Dallas	UT Dallas	USA	INST-U-2291
null	488714	18475	AlaChuShi	The Johns Hopkins University	Johns Hopkins	USA	INST-U-1859
null	488769	18475	ToTAMOoon	Texas A&M University	Texas A&M	USA	INST-U-1841
null	488774	18475	rowdy_beta	The University of Texas at San Antonio	UT San Antonio	USA	INST-U-2292
null	488604	18475	BJU Bruins A	Bob Jones University	BJU	USA	INST-U-0469
null	488720	18475	UNC_Alternate	University of North Carolina	UNC	USA	INST-U-2218
null	488602	18475	Deque 	University of Florida	U Florida	USA	INST-U-0191
null	488715	18475	Lafayette 3	Lafayette College	Lafayette	USA	INST-U-1161
null	488710	18475	Team Tsumo	College of William and Mary	William & Mary	USA	INST-U-0601
null	488717	18475	cout << 1/0 << endl;	Swarthmore College	Swarthmore College	USA	INST-U-1790
null	488603	18475	Clemson 000	Clemson University	Clemson	USA	INST-U-0590
null	488599	18475	GT 02	Georgia Institute of Technology	Georgia Tech	USA	INST-U-0819
null	488850	18475	Baylor Green	Baylor University	Baylor	USA	INST-U-0431
null	488776	18475	UNT Team 1	University of North Texas	UNT	USA	INST-U-2224
null	488600	18475	M||E	Emory University	Emory U.	USA	INST-U-0716
null	488596	18475	GT 01	Georgia Institute of Technology	Georgia Tech	USA	INST-U-0819
null	488791	18475	Team 3	Virginia Tech	Virginia Tech	USA	INST-U-2368
null	488607	18475	AU Nova	Auburn University	Auburn	USA	INST-U-0402
null	488716	18475	Lafayette 2	Lafayette College	Lafayette	USA	INST-U-1161
null	488790	18475	Overloading Operators	Swarthmore College	Swarthmore College	USA	INST-U-1790
null	488598	18475	UCF Iron	University of Central Florida	U Central Florida	USA	INST-U-2138
null	488837	18475	NKU #1	Northern Kentucky University	NKU	USA	INST-U-1388
null	488767	18475	Rice Owls	Rice University	Rice	USA	INST-U-1528
null	488722	18475	Seg faults	University of Virginia	U Virginia	USA	INST-U-2310
null	488712	18475	O(E^mu)	Eastern Mennonite University	EMU	USA	INST-U-7628
null	488849	18475	rowdy_alpha	The University of Texas at San Antonio	UT San Antonio	USA	INST-U-2292
null	488709	18475	Bytes from the Mountains	Appalachian State University	Appalachian	USA	INST-U-0385
null	488789	18475	team 4	Duke University	Duke	USA	INST-U-0677
null	488721	18475	Onee-sama	University of Virginia	U Virginia	USA	INST-U-2310
null	488771	18475	tobors	The University of Texas at Dallas	UT Dallas	USA	INST-U-2291
null	488772	18475	UT O(range)	The University of Texas at Austin	UT Austin	USA	INST-U-2290
null	488597	18475	UCF Slow Cooker	University of Central Florida	U Central Florida	USA	INST-U-2138
null	488601	18475	Unordered_set	University of Florida	U Florida	USA	INST-U-0191
null	488723	18475	Wild	Villanova University	Nova	USA	INST-U-2362
null	488713	18475	DaBriMan	The Johns Hopkins University	Johns Hopkins	USA	INST-U-1859
