institution-unit Id	institution Id	institution-unit name	institution-unit short name	institution-unit homepage	country	whether has graduate program(Y/N)
2984	3328	Purdue University	Purdue	http://www.purdue.edu	USA	UNIVERSITY_GRADUATE
1299	1242	Mount Allison University	Mount Allison	http://www.mta.ca	CAN	UNIVERSITY_NO_GRADUATE
609	339	Cornell University	Cornell	http://www.cornell.edu	USA	UNIVERSITY_GRADUATE
2312	2566	University of Waterloo	U Waterloo	http://www.uwaterloo.ca	CAN	UNIVERSITY_GRADUATE
2302	2556	University of Toronto	U of Toronto	http://www.toronto.edu	CAN	UNIVERSITY_GRADUATE
1549	1559	Rutgers University	Rutgers Uni.	http://www.rutgers.edu/	USA	UNIVERSITY_GRADUATE
1362	1324	New Jersey Institute of Technology	NJIT	http://www.njit.edu	USA	UNIVERSITY_GRADUATE
521	234	Case Western Reserve University	CWRU	http://www.cwru.edu/	USA	UNIVERSITY_GRADUATE
1771	1836	Stevens Institute of Technology	Stevens Tech	http://www.stevens-tech.edu	USA	UNIVERSITY_GRADUATE
19023	9326	Northeastern University	NEU	https://www.northeastern.edu	USA	UNIVERSITY_GRADUATE
1220	1145	Massachusetts Institute of Technology	MIT	http://web.mit.edu	USA	UNIVERSITY_GRADUATE
1945	2075	University of Prince Edward Island	UPEI	http://www.upei.ca	CAN	UNIVERSITY_NO_GRADUATE
2257	2493	University of Rochester	U Rochester	http://www.rochester.edu	USA	UNIVERSITY_GRADUATE
1785	1854	SUNY Stony Brook	SUNY Stony Brook	http://www.sunysb.edu	USA	UNIVERSITY_GRADUATE
519	232	Carnegie Mellon University	Carnegie Mellon	http://www.cmu.edu	USA	UNIVERSITY_GRADUATE
2437	2730	Yale University	Yale	http://www.cs.yale.edu/	USA	UNIVERSITY_GRADUATE
1855	1946	The Cooper Union for the Advancement of Science and Art	Cooper Union	http://www.cooper.edu	USA	UNIVERSITY_NO_GRADUATE
3897	4307	Princeton University	Princeton	http://www.princeton.edu	USA	UNIVERSITY_GRADUATE
641	332	Columbia University	Columbia U	http://www.columbia.edu	USA	UNIVERSITY_GRADUATE
861	642	Harvard University	Harvard	http://www.harvard.edu	USA	UNIVERSITY_GRADUATE
21032	11339	CICS UMass-Amherst	CICS UMass-Amherst	https://www.cics.umass.edu	USA	UNIVERSITY_GRADUATE
1225	1152	McGill University	McGill U	http://www.cs.mcgill.ca	CAN	UNIVERSITY_GRADUATE
2141	2352	University of Cincinnati	U of Cincinnati	http://www.ececs.uc.edu	USA	UNIVERSITY_GRADUATE
1414	1384	Ohio State University	Ohio State U.	http://www.osu.edu	USA	UNIVERSITY_GRADUATE
2195	2423	University of Michigan at Ann Arbor	U Michigan	http://www.umich.edu	USA	UNIVERSITY_GRADUATE
6317	7070	University of Toronto Scarborough	UTSC	http://www.utsc.utoronto.ca	CAN	UNIVERSITY_GRADUATE
2317	2574	University of Wisconsin - Madison	U Wisconsin - Madison	http://www.wisc.edu	USA	UNIVERSITY_GRADUATE
6312	7065	Truman State University	TSU	http://truman.edu	USA	UNIVERSITY_GRADUATE
19597	9900	Concordia University Chicago	CUC	https://www.cuchicago.edu/	USA	UNIVERSITY_GRADUATE
2452	2746	York University	York U.	http://www.yorku.ca	CAN	UNIVERSITY_GRADUATE
3230	3537	University of Manitoba	U Manitoba	http://www.umanitoba.ca	CAN	UNIVERSITY_NO_GRADUATE
484	190	Brock University	Brock U.	http://www.brocku.ca	CAN	UNIVERSITY_NO_GRADUATE
2183	2405	University of Louisville	UofL	http://acm.louisville.edu	USA	UNIVERSITY_GRADUATE
1883	1982	The University of South Dakota	USD	http://www.usd.edu	USA	UNIVERSITY_GRADUATE
3170	3523	Vanderbilt University	Vanderbilt	http://www.vanderbilt.edu/	USA	UNIVERSITY_GRADUATE
1003	860	Iowa State University	Iowa State U	http://www.iastate.edu	USA	UNIVERSITY_GRADUATE
870	651	Hendrix College	Hendrix	http://www.hendrix.edu	USA	UNIVERSITY_NO_GRADUATE
622	354	Dakota State University	DSU	http://www.dsu.edu	USA	UNIVERSITY_GRADUATE
2207	2438	University of Nebraska - Lincoln	U Nebraska - Lincoln	http://www.unl.edu	USA	UNIVERSITY_GRADUATE
2170	2387	University of Illinois at Urbana-Champaign	U Illinois at U-C	http://illinois.edu	USA	UNIVERSITY_GRADUATE
1697	1741	South Dakota School of Mines and Technology	SDSM&T	http://www.sdsmt.edu	USA	UNIVERSITY_GRADUATE
1367	1329	New York University	NYU	http://www.nyu.edu	USA	UNIVERSITY_GRADUATE
1241	1170	Michigan Technological University	Michigan Tech	http://www.cs.mtu.edu	USA	UNIVERSITY_GRADUATE
2393	2678	Washington University in St. Louis	Washington U - St. Louis	http://www.wustl.edu	USA	UNIVERSITY_GRADUATE
1484	1474	Polytechnic University	Polytech	http://www.poly.edu	USA	UNIVERSITY_GRADUATE
19471	9774	Hunter College of the City University of New York	Hunter	http://www.hunter.cuny.edu/main/	USA	UNIVERSITY_GRADUATE
6323	7076	Missouri University of Science and Technology	MST	http://www.mst.edu	USA	UNIVERSITY_GRADUATE
2231	2429	University of Minnesota - Twin Cities	U Minnesota - TC	http://www.umn.edu	USA	UNIVERSITY_GRADUATE
3267	3623	St. Olaf College		http://www.stolaf.edu	USA	UNIVERSITY_NO_GRADUATE
19093	9396	Southeast Missouri State University	SEMO	http://www.semo.edu/	USA	UNIVERSITY_GRADUATE
4859	5323	Milwaukee School of Engineering	MSOE	http://www.msoe.edu/	USA	UNIVERSITY_GRADUATE
262	6529	West Chester University	WCU	http://www.cs.wcupa.edu	USA	UNIVERSITY_GRADUATE
2178	2399	University of Kentucky	U of Kentucky	http://www.cs.uky.edu	USA	UNIVERSITY_GRADUATE
517	230	Carleton College	Carleton	http://www.carleton.edu/	USA	UNIVERSITY_NO_GRADUATE
5275	5745	University of Winnipeg	UWinnipeg	http://www.uwinnipeg.ca/	CAN	UNIVERSITY_GRADUATE
209	1546	Rose-Hulman Institute of Technology	Rose-Hulman	http://www.rose-hulman.edu	USA	UNIVERSITY_GRADUATE
3182	3536	Northwestern University	Northwestern	http://northwestern.edu	USA	UNIVERSITY_GRADUATE
642	376	Depaul University	Depaul U.	http://www.depaul.edu	USA	UNIVERSITY_GRADUATE
2131	2339	University of California Los Angeles	UCLA	http://www.ucla.edu	USA	UNIVERSITY_GRADUATE
2168	2328	University of Calgary	U Calgary	http://www.ucalgary.ca	CAN	UNIVERSITY_GRADUATE
2308	2562	University of Utah	Utah	http://www.utah.edu	USA	UNIVERSITY_GRADUATE
7239	7991	University Of British Columbia Okanagan	UBCO	http://ok.ubc.ca/welcome.html	CAN	UNIVERSITY_GRADUATE
501	210	California Institute of Technology	Caltech	http://www.caltech.edu	USA	UNIVERSITY_GRADUATE
655	389	DigiPen Institute of Technology	DigiPen	http://www.digipen.edu	USA	UNIVERSITY_NO_GRADUATE
2320	2577	University of Wisconsin - Platteville	UWP	http://www.uwplatt.edu	USA	UNIVERSITY_NO_GRADUATE
1199	1120	Macalester College	Macalester	http://www.macalester.edu	USA	UNIVERSITY_NO_GRADUATE
2127	2334	University of California San Diego	UC San Diego	http://www.ucsd.edu	USA	UNIVERSITY_GRADUATE
481	187	Brigham Young University	BYU	http://www.byu.edu	USA	UNIVERSITY_GRADUATE
3259	3615	San Jose State University		http://www.sjsu.edu/	USA	UNIVERSITY_NO_GRADUATE
184	3670	University of California Irvine	UC Irvine	http://www.uci.edu	USA	UNIVERSITY_NO_GRADUATE
148	2401	University of Lethbridge	U Lethbridge	http://www.uleth.ca/	CAN	UNIVERSITY_GRADUATE
1679	1714	Simon Fraser University	SFU	http://www.sfu.ca	CAN	UNIVERSITY_GRADUATE
611	341	Creighton University	Creighton	http://www.creighton.edu	USA	UNIVERSITY_GRADUATE
149	2519	University of Southern California	USC	http://www.usc.edu	USA	UNIVERSITY_GRADUATE
2124	2324	University of British Columbia	U British Columbia	http://www.ubc.ca	CAN	UNIVERSITY_GRADUATE
6880	7632	De Anza College	De Anza	http://www.deanza.edu	USA	null
2112	2306	University of Alberta	U Alberta	http://www.ualberta.ca	CAN	UNIVERSITY_GRADUATE
2132	2340	University of California Riverside	UCR	http://www.ucr.edu	USA	UNIVERSITY_GRADUATE
602	330	Colorado School of Mines	Mines	http://www.mines.edu	USA	UNIVERSITY_GRADUATE
1233	1162	Colorado Mesa University	MSC	http://www.mesastate.edu	USA	UNIVERSITY_NO_GRADUATE
1590	1611	Santa Barbara City College	SBCC	http://www.sbcc.edu	USA	UNIVERSITY_NO_GRADUATE
2129	2337	University of California at Berkeley	UC Berkeley	http://www.berkeley.edu	USA	UNIVERSITY_GRADUATE
2311	2565	University of Washington	U of Washington	http://www.washington.edu	USA	UNIVERSITY_GRADUATE
150	1822	Stanford University	Stanford	http://www.stanford.edu	USA	UNIVERSITY_GRADUATE
1941	2068	United States Air Force Academy	USAFA	http://www.usafa.af.mil	USA	UNIVERSITY_NO_GRADUATE
767	539	Fayetteville State University	FSU	http://www.uncfsu.edu	USA	UNIVERSITY_NO_GRADUATE
786	559	Florida Institute of Technology	Florida Tech	http://www.fit.edu	USA	UNIVERSITY_GRADUATE
2189	2411	University of Maryland	U Maryland	http://www.umd.edu	USA	UNIVERSITY_GRADUATE
677	413	Duke University	Duke	http://www.cs.duke.edu	USA	UNIVERSITY_GRADUATE
1841	1930	Texas A&M University	Texas A&M	http://www.tamu.edu	USA	UNIVERSITY_GRADUATE
2368	2648	Virginia Tech	Virginia Tech	http://www.cs.vt.edu	USA	UNIVERSITY_GRADUATE
2306	2560	University of Tulsa	Tulsa	http://www.utulsa.edu	USA	UNIVERSITY_GRADUATE
2290	2537	The University of Texas at Austin	UT Austin	http://www.utexas.edu	USA	UNIVERSITY_GRADUATE
2291	2538	The University of Texas at Dallas	UT Dallas	http://www.utdallas.edu	USA	UNIVERSITY_GRADUATE
1859	1951	The Johns Hopkins University	Johns Hopkins	http://www.jhu.edu	USA	UNIVERSITY_GRADUATE
2292	2539	The University of Texas at San Antonio	UT San Antonio	http://www.utsa.edu	USA	UNIVERSITY_GRADUATE
469	173	Bob Jones University	BJU	http://www.bju.edu	USA	UNIVERSITY_NO_GRADUATE
2218	2453	University of North Carolina	UNC	http://www.unc.edu	USA	UNIVERSITY_GRADUATE
191	2371	University of Florida	U Florida	http://www.ufl.edu	USA	UNIVERSITY_GRADUATE
1161	1076	Lafayette College	Lafayette	http://www.lafayette.edu	USA	UNIVERSITY_NO_GRADUATE
601	328	College of William and Mary	William & Mary	http://www.wm.edu	USA	UNIVERSITY_GRADUATE
1790	1859	Swarthmore College	Swarthmore College	http://www.swarthmore.edu	USA	UNIVERSITY_NO_GRADUATE
590	313	Clemson University	Clemson	http://www.clemson.edu	USA	UNIVERSITY_GRADUATE
819	597	Georgia Institute of Technology	Georgia Tech	http://www.gatech.edu	USA	UNIVERSITY_GRADUATE
431	131	Baylor University	Baylor	http://www.baylor.edu	USA	UNIVERSITY_GRADUATE
2224	2459	University of North Texas	UNT	http://www.unt.edu	USA	UNIVERSITY_GRADUATE
716	457	Emory University	Emory U.	http://www.emory.edu	USA	UNIVERSITY_GRADUATE
402	98	Auburn University	Auburn	http://www.auburn.edu	USA	UNIVERSITY_GRADUATE
2138	2349	University of Central Florida	U Central Florida	http://www.ucf.edu	USA	UNIVERSITY_GRADUATE
1388	1357	Northern Kentucky University	NKU	http://www.nku.edu	USA	UNIVERSITY_GRADUATE
1528	1533	Rice University	Rice	http://www.rice.edu	USA	UNIVERSITY_GRADUATE
2310	2564	University of Virginia	U Virginia	http://www.virginia.edu/	USA	UNIVERSITY_GRADUATE
7628	8378	Eastern Mennonite University	EMU	http://www.emu.edu	USA	UNIVERSITY_GRADUATE
385	79	Appalachian State University	Appalachian	http://www.appstate.edu	USA	UNIVERSITY_GRADUATE
2362	2642	Villanova University	Nova	http://www.villanova.edu	USA	UNIVERSITY_GRADUATE
