person Id	team Id	site Id	team role	badge role	whether need TShirt
500770	488783	18474	CONTESTANT	Contestant	Y
495285	488783	18474	COACH	Coach	Y
581821	488783	18474	CONTESTANT	Contestant	Y
585411	488783	18474	CONTESTANT	Contestant	Y
500704	488640	18474	CONTESTANT	Contestant	Y
581280	488640	18474	CONTESTANT	Contestant	Y
43014	488640	18474	COACH	Coach	Y
581278	488640	18474	CONTESTANT	Contestant	Y
522744	488787	18474	CONTESTANT	Contestant	Y
158405	488787	18474	COACH	Coach	Y
584940	488787	18474	CONTESTANT	Contestant	Y
522745	488787	18474	CONTESTANT	Contestant	Y
377120	488707	18474	CONTESTANT	Contestant	Y
716	488707	18474	COCOACH	Cocoach	Y
513334	488707	18474	CONTESTANT	Contestant	Y
400079	488707	18474	CONTESTANT	Contestant	Y
172008	488707	18474	COACH	Coach	Y
580142	488705	18474	CONTESTANT	Contestant	Y
580143	488705	18474	CONTESTANT	Contestant	Y
580141	488705	18474	CONTESTANT	Contestant	Y
449671	488705	18474	COACH	Coach	Y
454022	488625	18474	CONTESTANT	Contestant	Y
453513	488625	18474	CONTESTANT	Contestant	Y
582224	488625	18474	COACH	Coach	Y
448375	488625	18474	CONTESTANT	Contestant	Y
455711	488631	18474	CONTESTANT	Contestant	Y
488029	488631	18474	COACH	Coach	Y
458967	488631	18474	CONTESTANT	Contestant	Y
459212	488631	18474	CONTESTANT	Contestant	Y
521167	488696	18474	CONTESTANT	Contestant	Y
401128	488696	18474	CONTESTANT	Contestant	Y
452874	488696	18474	COACH	Coach	Y
521166	488696	18474	CONTESTANT	Contestant	Y
585826	488630	18474	CONTESTANT	Contestant	Y
525124	488630	18474	CONTESTANT	Contestant	Y
516453	488630	18474	COACH	Coach	Y
488258	488630	18474	CONTESTANT	Contestant	Y
582576	488636	18474	CONTESTANT	Contestant	Y
583978	488636	18474	CONTESTANT	Contestant	Y
508706	488636	18474	STUDENT_COACH	Student_coach	Y
384204	488634	18474	CONTESTANT	Contestant	Y
582274	488634	18474	CONTESTANT	Contestant	Y
507407	488634	18474	COACH	Coach	Y
582273	488634	18474	CONTESTANT	Contestant	Y
443053	488842	18474	CONTESTANT	Contestant	Y
324066	488842	18474	COACH	Coach	Y
443050	488842	18474	CONTESTANT	Contestant	Y
443064	488842	18474	CONTESTANT	Contestant	Y
50427	488637	18474	COACH	Coach	Y
512379	488637	18474	CONTESTANT	Contestant	Y
438217	488637	18474	CONTESTANT	Contestant	Y
512378	488637	18474	CONTESTANT	Contestant	Y
259314	488788	18474	COACH	Coach	Y
377486	488788	18474	COCOACH	Cocoach	Y
582092	488788	18474	CONTESTANT	Contestant	Y
582154	488788	18474	CONTESTANT	Contestant	Y
376617	488788	18474	COCOACH	Cocoach	Y
582102	488788	18474	CONTESTANT	Contestant	Y
582215	488708	18474	CONTESTANT	Contestant	Y
172008	488708	18474	COACH	Coach	Y
582212	488708	18474	CONTESTANT	Contestant	Y
581981	488708	18474	CONTESTANT	Contestant	Y
578812	488694	18474	CONTESTANT	Contestant	Y
20487	488694	18474	COACH	Coach	Y
516120	488694	18474	CONTESTANT	Contestant	Y
578856	488694	18474	CONTESTANT	Contestant	Y
376615	488626	18474	COCOACH	Cocoach	Y
376618	488626	18474	COCOACH	Cocoach	Y
259314	488626	18474	COACH	Coach	Y
511505	488626	18474	CONTESTANT	Contestant	Y
511507	488626	18474	CONTESTANT	Contestant	Y
511501	488626	18474	CONTESTANT	Contestant	Y
580080	488627	18474	CONTESTANT	Contestant	Y
578442	488627	18474	CONTESTANT	Contestant	Y
579521	488627	18474	CONTESTANT	Contestant	Y
223803	488627	18474	COACH	Coach	Y
523900	488786	18474	CONTESTANT	Contestant	Y
583428	488786	18474	CONTESTANT	Contestant	Y
14141	488786	18474	COACH	Coach	Y
523909	488786	18474	CONTESTANT	Contestant	Y
396072	488704	18474	CONTESTANT	Contestant	Y
541866	488704	18474	CONTESTANT	Contestant	Y
449671	488704	18474	COACH	Coach	Y
441598	488704	18474	CONTESTANT	Contestant	Y
380788	488695	18474	CONTESTANT	Contestant	Y
516187	488695	18474	CONTESTANT	Contestant	Y
20487	488695	18474	COACH	Coach	Y
578814	488695	18474	CONTESTANT	Contestant	Y
367857	488624	18474	CONTESTANT	Contestant	Y
367930	488624	18474	CONTESTANT	Contestant	Y
367858	488624	18474	CONTESTANT	Contestant	Y
581030	488624	18474	COACH	Coach	Y
584781	488628	18474	CONTESTANT	Contestant	Y
333912	488628	18474	COCOACH	Cocoach	Y
386215	488628	18474	CONTESTANT	Contestant	Y
256013	488628	18474	CONTESTANT	Contestant	Y
39466	488628	18474	COACH	Coach	Y
581221	488638	18474	CONTESTANT	Contestant	Y
5266	488638	18474	COACH	Coach	Y
581215	488638	18474	CONTESTANT	Contestant	Y
535772	488638	18474	COCOACH	Cocoach	Y
514372	488638	18474	CONTESTANT	Contestant	Y
583245	488639	18474	CONTESTANT	Contestant	Y
582428	488639	18474	COACH	Coach	Y
583248	488639	18474	CONTESTANT	Contestant	Y
552925	488639	18474	CONTESTANT	Contestant	Y
514192	488633	18474	CONTESTANT	Contestant	Y
507407	488633	18474	COACH	Coach	Y
582271	488633	18474	CONTESTANT	Contestant	Y
514195	488633	18474	CONTESTANT	Contestant	Y
580983	488632	18474	CONTESTANT	Contestant	Y
581042	488632	18474	CONTESTANT	Contestant	Y
581030	488632	18474	COACH	Coach	Y
580984	488632	18474	CONTESTANT	Contestant	Y
60994	488635	18474	COACH	Coach	Y
523499	488635	18474	CONTESTANT	Contestant	Y
450479	488635	18474	CONTESTANT	Contestant	Y
523500	488635	18474	CONTESTANT	Contestant	Y
60994	488641	18474	COACH	Coach	Y
583639	488641	18474	CONTESTANT	Contestant	Y
582134	488641	18474	CONTESTANT	Contestant	Y
582100	488641	18474	CONTESTANT	Contestant	Y
535772	488642	18474	COCOACH	Cocoach	Y
581224	488642	18474	CONTESTANT	Contestant	Y
581223	488642	18474	CONTESTANT	Contestant	Y
5266	488642	18474	COACH	Coach	Y
514375	488642	18474	CONTESTANT	Contestant	Y
374726	488702	18474	CONTESTANT	Contestant	Y
583338	488702	18474	CONTESTANT	Contestant	Y
67	488702	18474	COACH	Coach	Y
524756	488702	18474	CONTESTANT	Contestant	Y
512261	488699	18474	CONTESTANT	Contestant	Y
370733	488699	18474	CONTESTANT	Contestant	Y
581838	488699	18474	COACH	Coach	Y
512278	488699	18474	CONTESTANT	Contestant	Y
509854	488700	18474	CONTESTANT	Contestant	Y
393787	488700	18474	CONTESTANT	Contestant	Y
495285	488700	18474	COACH	Coach	Y
509839	488700	18474	CONTESTANT	Contestant	Y
584718	488698	18474	CONTESTANT	Contestant	Y
584779	488698	18474	CONTESTANT	Contestant	Y
452874	488698	18474	COACH	Coach	Y
584717	488698	18474	CONTESTANT	Contestant	Y
581830	488782	18474	CONTESTANT	Contestant	Y
581838	488782	18474	COACH	Coach	Y
581828	488782	18474	CONTESTANT	Contestant	Y
581829	488782	18474	CONTESTANT	Contestant	Y
514229	488629	18474	CONTESTANT	Contestant	Y
582224	488629	18474	COACH	Coach	Y
448892	488629	18474	CONTESTANT	Contestant	Y
581968	488629	18474	CONTESTANT	Contestant	Y
582133	488815	18474	CONTESTANT	Contestant	Y
50427	488815	18474	COACH	Coach	Y
512390	488815	18474	CONTESTANT	Contestant	Y
420585	488815	18474	CONTESTANT	Contestant	Y
582226	488784	18474	CONTESTANT	Contestant	Y
516262	488784	18474	CONTESTANT	Contestant	Y
516266	488784	18474	CONTESTANT	Contestant	Y
96	488784	18474	COACH	Coach	Y
96	488703	18474	COACH	Coach	Y
516238	488703	18474	CONTESTANT	Contestant	Y
582225	488703	18474	CONTESTANT	Contestant	Y
516252	488703	18474	CONTESTANT	Contestant	Y
508706	488643	18474	COACH	Coach	Y
584591	488643	18474	CONTESTANT	Contestant	Y
521201	488643	18474	CONTESTANT	Contestant	Y
521075	488643	18474	CONTESTANT	Contestant	Y
582384	488706	18474	CONTESTANT	Contestant	Y
582386	488706	18474	CONTESTANT	Contestant	Y
582385	488706	18474	CONTESTANT	Contestant	Y
497144	488706	18474	COACH	Coach	Y
458463	488779	18474	CONTESTANT	Contestant	Y
584932	488779	18474	CONTESTANT	Contestant	Y
158405	488779	18474	COACH	Coach	Y
584931	488779	18474	CONTESTANT	Contestant	Y
14141	488826	18474	COACH	Coach	Y
523899	488826	18474	CONTESTANT	Contestant	Y
583429	488826	18474	CONTESTANT	Contestant	Y
523906	488826	18474	CONTESTANT	Contestant	Y
442348	488759	18473	CONTESTANT	Contestant	Y
22598	488759	18473	COACH	Coach	Y
580350	488759	18473	CONTESTANT	Contestant	Y
580349	488759	18473	CONTESTANT	Contestant	Y
422210	488735	18473	COACH	Coach	Y
449039	488735	18473	CONTESTANT	Contestant	Y
422428	488735	18473	CONTESTANT	Contestant	Y
422427	488735	18473	CONTESTANT	Contestant	Y
526760	488730	18473	COACH	Coach	Y
526764	488730	18473	CONTESTANT	Contestant	Y
581285	488730	18473	CONTESTANT	Contestant	Y
581260	488730	18473	CONTESTANT	Contestant	Y
453569	488822	18473	CONTESTANT	Contestant	Y
453565	488822	18473	COACH	Coach	Y
518405	488822	18473	CONTESTANT	Contestant	Y
453580	488822	18473	CONTESTANT	Contestant	Y
513514	488751	18473	CONTESTANT	Contestant	Y
522191	488751	18473	CONTESTANT	Contestant	Y
213243	488751	18473	COACH	Coach	Y
522193	488751	18473	CONTESTANT	Contestant	Y
580832	488821	18473	CONTESTANT	Contestant	Y
580835	488821	18473	CONTESTANT	Contestant	Y
580834	488821	18473	CONTESTANT	Contestant	Y
6316	488821	18473	COACH	Coach	Y
221869	488798	18473	COACH	Coach	Y
581972	488798	18473	CONTESTANT	Contestant	Y
574508	488798	18473	CONTESTANT	Contestant	Y
525729	488798	18473	CONTESTANT	Contestant	Y
523039	488757	18473	CONTESTANT	Contestant	Y
442884	488757	18473	CONTESTANT	Contestant	Y
583402	488757	18473	CONTESTANT	Contestant	Y
23083	488757	18473	COACH	Coach	Y
375792	488740	18473	CONTESTANT	Contestant	Y
511226	488740	18473	CONTESTANT	Contestant	Y
581854	488740	18473	CONTESTANT	Contestant	Y
230666	488740	18473	COACH	Coach	Y
22598	488760	18473	COACH	Coach	Y
442397	488760	18473	CONTESTANT	Contestant	Y
580343	488760	18473	CONTESTANT	Contestant	Y
580342	488760	18473	CONTESTANT	Contestant	Y
523485	488746	18473	COACH	Coach	Y
455918	488746	18473	CONTESTANT	Contestant	Y
581786	488746	18473	CONTESTANT	Contestant	Y
524422	488746	18473	CONTESTANT	Contestant	Y
503460	488739	18473	CONTESTANT	Contestant	Y
221869	488739	18473	COACH	Coach	Y
574509	488739	18473	CONTESTANT	Contestant	Y
511169	488739	18473	CONTESTANT	Contestant	Y
453888	488732	18473	CONTESTANT	Contestant	Y
524838	488732	18473	CONTESTANT	Contestant	Y
272880	488732	18473	COACH	Coach	Y
581452	488732	18473	CONTESTANT	Contestant	Y
376589	488745	18473	CONTESTANT	Contestant	Y
377865	488745	18473	CONTESTANT	Contestant	Y
275875	488745	18473	COACH	Coach	Y
444518	488745	18473	CONTESTANT	Contestant	Y
582150	488755	18473	CONTESTANT	Contestant	Y
278486	488755	18473	COCOACH	Cocoach	Y
511035	488755	18473	CONTESTANT	Contestant	Y
582151	488755	18473	CONTESTANT	Contestant	Y
29404	488755	18473	COACH	Coach	Y
505897	488736	18473	CONTESTANT	Contestant	Y
505890	488736	18473	CONTESTANT	Contestant	Y
329184	488736	18473	COACH	Coach	Y
433589	488736	18473	CONTESTANT	Contestant	Y
580261	489566	18473	CONTESTANT	Contestant	Y
275875	489566	18473	COACH	Coach	Y
580915	489566	18473	CONTESTANT	Contestant	Y
580322	489566	18473	CONTESTANT	Contestant	Y
369360	488838	18473	CONTESTANT	Contestant	Y
579827	488838	18473	CONTESTANT	Contestant	Y
308509	488838	18473	CONTESTANT	Contestant	Y
284336	488838	18473	COACH	Coach	Y
580512	488824	18473	CONTESTANT	Contestant	Y
580504	488824	18473	CONTESTANT	Contestant	Y
451327	488824	18473	COACH	Coach	Y
580528	488824	18473	CONTESTANT	Contestant	Y
513556	488814	18473	CONTESTANT	Contestant	Y
213243	488814	18473	COACH	Coach	Y
591255	488814	18473	CONTESTANT	Contestant	Y
513529	488814	18473	CONTESTANT	Contestant	Y
360012	488747	18473	COACH	Coach	Y
583383	488747	18473	CONTESTANT	Contestant	Y
583382	488747	18473	CONTESTANT	Contestant	Y
583384	488747	18473	CONTESTANT	Contestant	Y
510965	488742	18473	CONTESTANT	Contestant	Y
436997	488742	18473	CONTESTANT	Contestant	Y
330650	488742	18473	COACH	Coach	Y
463912	488742	18473	CONTESTANT	Contestant	Y
522766	488825	18473	CONTESTANT	Contestant	Y
522805	488825	18473	CONTESTANT	Contestant	Y
437000	488825	18473	CONTESTANT	Contestant	Y
21353	488825	18473	COACH	Coach	Y
457006	488823	18473	CONTESTANT	Contestant	Y
585207	488823	18473	CONTESTANT	Contestant	Y
456054	488823	18473	COACH	Coach	Y
455635	488823	18473	CONTESTANT	Contestant	Y
505889	488737	18473	CONTESTANT	Contestant	Y
329184	488737	18473	COACH	Coach	Y
505881	488737	18473	CONTESTANT	Contestant	Y
475161	488737	18473	CONTESTANT	Contestant	Y
137619	488836	18473	COACH	Coach	Y
453967	488836	18473	CONTESTANT	Contestant	Y
582673	488836	18473	CONTESTANT	Contestant	Y
524649	488836	18473	CONTESTANT	Contestant	Y
364257	488752	18473	COACH	Coach	Y
521132	488752	18473	CONTESTANT	Contestant	Y
521182	488752	18473	CONTESTANT	Contestant	Y
564327	488752	18473	CONTESTANT	Contestant	Y
583389	488753	18473	CONTESTANT	Contestant	Y
583385	488753	18473	CONTESTANT	Contestant	Y
364257	488753	18473	COACH	Coach	Y
580827	488753	18473	CONTESTANT	Contestant	Y
391255	488750	18473	CONTESTANT	Contestant	Y
528328	488750	18473	CONTESTANT	Contestant	Y
23738	488750	18473	COACH	Coach	Y
528327	488750	18473	CONTESTANT	Contestant	Y
580754	488819	18473	CONTESTANT	Contestant	Y
448243	488819	18473	COACH	Coach	Y
580783	488819	18473	CONTESTANT	Contestant	Y
580755	488819	18473	CONTESTANT	Contestant	Y
526036	488748	18473	COACH	Coach	Y
527666	488748	18473	CONTESTANT	Contestant	Y
526451	488748	18473	CONTESTANT	Contestant	Y
526450	488748	18473	CONTESTANT	Contestant	Y
580666	488834	18473	CONTESTANT	Contestant	Y
583393	488834	18473	CONTESTANT	Contestant	Y
423888	488834	18473	COACH	Coach	Y
435771	488834	18473	CONTESTANT	Contestant	Y
448243	488820	18473	COACH	Coach	Y
513949	488820	18473	CONTESTANT	Contestant	Y
581024	488820	18473	CONTESTANT	Contestant	Y
513941	488820	18473	CONTESTANT	Contestant	Y
102	488738	18473	COACH	Coach	Y
527128	488738	18473	CONTESTANT	Contestant	Y
527127	488738	18473	CONTESTANT	Contestant	Y
527129	488738	18473	CONTESTANT	Contestant	Y
511176	488741	18473	CONTESTANT	Contestant	Y
581847	488741	18473	CONTESTANT	Contestant	Y
230666	488741	18473	COACH	Coach	Y
511178	488741	18473	CONTESTANT	Contestant	Y
582714	488744	18473	CONTESTANT	Contestant	Y
500427	488744	18473	COACH	Coach	Y
579599	488744	18473	CONTESTANT	Contestant	Y
582719	488744	18473	CONTESTANT	Contestant	Y
581993	488743	18473	CONTESTANT	Contestant	Y
581994	488743	18473	CONTESTANT	Contestant	Y
330650	488743	18473	COACH	Coach	Y
581990	488743	18473	CONTESTANT	Contestant	Y
446305	488758	18473	CONTESTANT	Contestant	Y
446412	488758	18473	CONTESTANT	Contestant	Y
508689	488758	18473	CONTESTANT	Contestant	Y
500600	488758	18473	COACH	Coach	Y
71545	488734	18473	COACH	Coach	Y
436393	488734	18473	CONTESTANT	Contestant	Y
525746	488734	18473	CONTESTANT	Contestant	Y
450649	488734	18473	CONTESTANT	Contestant	Y
591849	488733	18473	COACH	Coach	N
582532	488733	18473	CONTESTANT	Contestant	Y
582533	488733	18473	CONTESTANT	Contestant	Y
582531	488733	18473	CONTESTANT	Contestant	Y
4578	488731	18473	COACH	Coach	Y
463805	488731	18473	CONTESTANT	Contestant	Y
580093	488731	18473	CONTESTANT	Contestant	Y
582549	488731	18473	CONTESTANT	Contestant	Y
582183	488749	18473	CONTESTANT	Contestant	Y
582243	488749	18473	CONTESTANT	Contestant	Y
582181	488749	18473	CONTESTANT	Contestant	Y
526036	488749	18473	COACH	Coach	Y
454470	488592	18476	CONTESTANT	Contestant	Y
19766	488592	18476	COACH	Coach	Y
527410	488592	18476	CONTESTANT	Contestant	Y
527400	488592	18476	CONTESTANT	Contestant	Y
585185	488590	18476	CONTESTANT	Contestant	Y
434681	488590	18476	CONTESTANT	Contestant	Y
585186	488590	18476	CONTESTANT	Contestant	Y
392697	488590	18476	COACH	Coach	Y
505983	488588	18476	CONTESTANT	Contestant	Y
581924	488588	18476	CONTESTANT	Contestant	N
580001	488588	18476	COACH	Coach	Y
453874	488588	18476	CONTESTANT	Contestant	Y
453539	488619	18476	CONTESTANT	Contestant	Y
219795	488619	18476	CONTESTANT	Contestant	Y
303344	488619	18476	COACH	Coach	Y
454159	488619	18476	CONTESTANT	Contestant	Y
457206	488606	18476	CONTESTANT	Contestant	Y
457046	488606	18476	COACH	Coach	Y
393979	488606	18476	CONTESTANT	Contestant	Y
527203	488606	18476	CONTESTANT	Contestant	Y
332962	488622	18476	COACH	Coach	Y
527603	488622	18476	CONTESTANT	Contestant	Y
583983	488622	18476	CONTESTANT	Contestant	Y
332106	488841	18476	COACH	Coach	Y
446348	488841	18476	CONTESTANT	Contestant	Y
446347	488841	18476	CONTESTANT	Contestant	Y
583554	488841	18476	CONTESTANT	Contestant	Y
582775	488840	18476	CONTESTANT	Contestant	Y
582774	488840	18476	CONTESTANT	Contestant	Y
582773	488840	18476	CONTESTANT	Contestant	Y
20300	488840	18476	COACH	Coach	Y
579918	488609	18476	CONTESTANT	Contestant	Y
457046	488609	18476	COACH	Coach	Y
393975	488609	18476	CONTESTANT	Contestant	Y
579919	488609	18476	CONTESTANT	Contestant	Y
581590	488595	18476	CONTESTANT	Contestant	Y
527402	488595	18476	CONTESTANT	Contestant	Y
19766	488595	18476	COACH	Coach	Y
527722	488595	18476	CONTESTANT	Contestant	Y
392300	488591	18476	COCOACH	Cocoach	Y
4086	488591	18476	COACH	Coach	Y
582374	488591	18476	CONTESTANT	Contestant	Y
582112	488591	18476	CONTESTANT	Contestant	Y
582375	488591	18476	CONTESTANT	Contestant	Y
581033	488549	18476	CONTESTANT	Contestant	Y
581032	488549	18476	CONTESTANT	Contestant	Y
581034	488549	18476	CONTESTANT	Contestant	Y
472868	488549	18476	COACH	Coach	Y
463373	488843	18476	COACH	Coach	Y
509819	488843	18476	CONTESTANT	Contestant	Y
581932	488843	18476	CONTESTANT	Contestant	Y
581931	488843	18476	CONTESTANT	Contestant	Y
76542	488818	18476	COACH	Coach	Y
527180	488818	18476	CONTESTANT	Contestant	Y
580651	488818	18476	CONTESTANT	Contestant	Y
580650	488818	18476	CONTESTANT	Contestant	Y
375211	488550	18476	CONTESTANT	Contestant	Y
15917	488550	18476	COACH	Coach	Y
434235	488550	18476	CONTESTANT	Contestant	Y
500466	488550	18476	CONTESTANT	Contestant	Y
374134	488617	18476	COCOACH	Cocoach	Y
208067	488617	18476	COCOACH	Cocoach	Y
575693	488617	18476	CONTESTANT	Contestant	Y
581021	488617	18476	CONTESTANT	Contestant	Y
276914	488617	18476	COACH	Coach	Y
334999	488617	18476	CONTESTANT	Contestant	Y
583371	488839	18476	CONTESTANT	Contestant	Y
583362	488839	18476	CONTESTANT	Contestant	Y
19602	488839	18476	COACH	Coach	Y
583361	488839	18476	CONTESTANT	Contestant	Y
25468	488852	18476	COACH	Coach	Y
527735	488852	18476	CONTESTANT	Contestant	Y
457395	488852	18476	CONTESTANT	Contestant	Y
457394	488852	18476	CONTESTANT	Contestant	Y
334708	488612	18476	COACH	Coach	Y
526277	488612	18476	CONTESTANT	Contestant	Y
376526	488612	18476	CONTESTANT	Contestant	Y
346073	488612	18476	CONTESTANT	Contestant	Y
581462	488611	18476	CONTESTANT	Contestant	Y
580680	488611	18476	CONTESTANT	Contestant	Y
577896	488611	18476	CONTESTANT	Contestant	Y
394967	488611	18476	COACH	Coach	Y
581389	488589	18476	CONTESTANT	Contestant	Y
506975	488589	18476	CONTESTANT	Contestant	Y
506004	488589	18476	CONTESTANT	Contestant	Y
580001	488589	18476	COACH	Coach	Y
233504	488548	18476	COACH	Coach	Y
463333	488548	18476	CONTESTANT	Contestant	Y
514515	488548	18476	CONTESTANT	Contestant	Y
329968	488548	18476	CONTESTANT	Contestant	Y
441307	488858	18476	CONTESTANT	Contestant	Y
585184	488858	18476	CONTESTANT	Contestant	Y
508657	488858	18476	CONTESTANT	Contestant	Y
392697	488858	18476	COACH	Coach	Y
581290	488816	18476	CONTESTANT	Contestant	Y
581186	488816	18476	CONTESTANT	Contestant	Y
581437	488816	18476	CONTESTANT	Contestant	Y
472868	488816	18476	COACH	Coach	Y
76542	488608	18476	COACH	Coach	Y
527187	488608	18476	CONTESTANT	Contestant	Y
527181	488608	18476	CONTESTANT	Contestant	Y
580643	488608	18476	CONTESTANT	Contestant	Y
392739	488593	18476	CONTESTANT	Contestant	Y
457342	488593	18476	CONTESTANT	Contestant	Y
392300	488593	18476	COCOACH	Cocoach	Y
4086	488593	18476	COACH	Coach	Y
515329	488593	18476	CONTESTANT	Contestant	Y
537242	488610	18476	CONTESTANT	Contestant	Y
448961	488610	18476	COACH	Coach	Y
526698	488610	18476	CONTESTANT	Contestant	Y
581070	488610	18476	CONTESTANT	Contestant	Y
521053	488817	18476	CONTESTANT	Contestant	Y
271105	488817	18476	COACH	Coach	Y
584997	488817	18476	CONTESTANT	Contestant	Y
584996	488817	18476	CONTESTANT	Contestant	Y
25468	488594	18476	COACH	Coach	Y
527739	488594	18476	CONTESTANT	Contestant	Y
527732	488594	18476	CONTESTANT	Contestant	Y
527736	488594	18476	CONTESTANT	Contestant	Y
584587	490007	18476	CONTESTANT	Contestant	Y
584580	490007	18476	CONTESTANT	Contestant	Y
452866	490007	18476	CONTESTANT	Contestant	Y
75146	490007	18476	COACH	Coach	Y
582356	488851	18476	CONTESTANT	Contestant	Y
106115	488851	18476	COACH	Coach	Y
582357	488851	18476	CONTESTANT	Contestant	Y
449011	488851	18476	CONTESTANT	Contestant	Y
580950	488551	18476	CONTESTANT	Contestant	Y
233504	488551	18476	COACH	Coach	Y
515216	488551	18476	CONTESTANT	Contestant	Y
516494	488551	18476	CONTESTANT	Contestant	Y
18711	488615	18476	COACH	Coach	Y
511104	488615	18476	CONTESTANT	Contestant	Y
511436	488615	18476	CONTESTANT	Contestant	Y
511131	488615	18476	CONTESTANT	Contestant	Y
209788	488614	18476	CONTESTANT	Contestant	Y
456356	488614	18476	CONTESTANT	Contestant	Y
441657	488614	18476	CONTESTANT	Contestant	Y
232914	488614	18476	COACH	Coach	Y
437309	488616	18476	CONTESTANT	Contestant	Y
279730	488616	18476	CONTESTANT	Contestant	Y
514136	488616	18476	CONTESTANT	Contestant	Y
279590	488616	18476	COACH	Coach	Y
220111	488613	18476	CONTESTANT	Contestant	Y
334708	488613	18476	COACH	Coach	Y
281332	488613	18476	CONTESTANT	Contestant	Y
281781	488613	18476	CONTESTANT	Contestant	Y
582067	488847	18476	CONTESTANT	Contestant	Y
454054	488847	18476	STUDENT_COACH	Student_coach	Y
582069	488847	18476	CONTESTANT	Contestant	Y
584316	488846	18476	CONTESTANT	Contestant	Y
584319	488846	18476	CONTESTANT	Contestant	Y
521051	488846	18476	CONTESTANT	Contestant	Y
271105	488846	18476	COACH	Coach	Y
581483	488623	18476	CONTESTANT	Contestant	Y
276914	488623	18476	COACH	Coach	Y
576266	488623	18476	CONTESTANT	Contestant	Y
374134	488623	18476	COCOACH	Cocoach	Y
208067	488623	18476	COCOACH	Cocoach	Y
581026	488623	18476	CONTESTANT	Contestant	Y
582955	488618	18476	CONTESTANT	Contestant	Y
582938	488618	18476	CONTESTANT	Contestant	Y
232914	488618	18476	COACH	Coach	Y
582956	488618	18476	CONTESTANT	Contestant	Y
581651	488620	18476	CONTESTANT	Contestant	Y
581778	488620	18476	CONTESTANT	Contestant	Y
514133	488620	18476	CONTESTANT	Contestant	Y
279590	488620	18476	COACH	Coach	Y
18711	488621	18476	COACH	Coach	Y
481165	488621	18476	CONTESTANT	Contestant	Y
581868	488621	18476	CONTESTANT	Contestant	Y
581870	488621	18476	CONTESTANT	Contestant	Y
4069	488835	18476	COACH	Coach	Y
581292	488835	18476	CONTESTANT	Contestant	Y
582111	488835	18476	CONTESTANT	Contestant	Y
595749	488835	18476	CONTESTANT	Contestant	Y
508697	488605	18475	CONTESTANT	Contestant	Y
583508	488605	18475	CONTESTANT	Contestant	Y
40	488605	18475	COACH	Coach	Y
583507	488605	18475	CONTESTANT	Contestant	Y
146506	488718	18475	COCOACH	Cocoach	Y
78901	488718	18475	COACH	Coach	Y
582090	488718	18475	CONTESTANT	Contestant	Y
582088	488718	18475	CONTESTANT	Contestant	Y
582091	488718	18475	CONTESTANT	Contestant	Y
582095	488719	18475	CONTESTANT	Contestant	Y
582094	488719	18475	CONTESTANT	Contestant	Y
78901	488719	18475	COACH	Coach	Y
582096	488719	18475	CONTESTANT	Contestant	Y
146506	488719	18475	COCOACH	Cocoach	Y
577786	488711	18475	CONTESTANT	Contestant	Y
374145	488711	18475	CONTESTANT	Contestant	Y
582205	488711	18475	CONTESTANT	Contestant	Y
50009	488711	18475	COACH	Coach	Y
573651	488768	18475	CONTESTANT	Contestant	Y
4932	488768	18475	COACH	Coach	Y
517926	488768	18475	CONTESTANT	Contestant	Y
441035	488768	18475	CONTESTANT	Contestant	Y
511036	488724	18475	CONTESTANT	Contestant	Y
432601	488724	18475	CONTESTANT	Contestant	Y
65637	488724	18475	COACH	Coach	Y
486883	488724	18475	CONTESTANT	Contestant	Y
437083	488775	18475	CONTESTANT	Contestant	Y
582612	488775	18475	CONTESTANT	Contestant	Y
101505	488775	18475	COACH	Coach	Y
437079	488775	18475	CONTESTANT	Contestant	Y
580423	488773	18475	CONTESTANT	Contestant	Y
503361	488773	18475	CONTESTANT	Contestant	Y
503370	488773	18475	CONTESTANT	Contestant	Y
269974	488773	18475	COACH	Coach	Y
435773	488770	18475	CONTESTANT	Contestant	Y
453005	488770	18475	CONTESTANT	Contestant	Y
521707	488770	18475	CONTESTANT	Contestant	Y
108059	488770	18475	COCOACH	Cocoach	N
171147	488770	18475	COACH	Coach	Y
453800	488714	18475	CONTESTANT	Contestant	Y
453801	488714	18475	CONTESTANT	Contestant	Y
525612	488714	18475	CONTESTANT	Contestant	Y
6745	488714	18475	COACH	Coach	Y
517920	488769	18475	CONTESTANT	Contestant	Y
4932	488769	18475	COACH	Coach	Y
581407	488769	18475	CONTESTANT	Contestant	Y
581408	488769	18475	CONTESTANT	Contestant	Y
582626	488774	18475	CONTESTANT	Contestant	Y
289311	488774	18475	COACH	Coach	Y
582625	488774	18475	CONTESTANT	Contestant	Y
582630	488774	18475	CONTESTANT	Contestant	Y
457285	488604	18475	CONTESTANT	Contestant	Y
21985	488604	18475	COACH	Coach	Y
441349	488604	18475	CONTESTANT	Contestant	Y
456120	488604	18475	CONTESTANT	Contestant	Y
567936	488720	18475	COACH	Coach	Y
434544	488720	18475	CONTESTANT	Contestant	Y
314174	488720	18475	CONTESTANT	Contestant	Y
507345	488720	18475	CONTESTANT	Contestant	Y
579733	488602	18475	CONTESTANT	Contestant	Y
502450	488602	18475	CONTESTANT	Contestant	Y
451814	488602	18475	CONTESTANT	Contestant	Y
451800	488602	18475	COACH	Coach	Y
521521	488715	18475	CONTESTANT	Contestant	Y
579836	488715	18475	CONTESTANT	Contestant	Y
43698	488715	18475	COACH	Coach	Y
521526	488715	18475	CONTESTANT	Contestant	Y
581952	488710	18475	CONTESTANT	Contestant	Y
521639	488710	18475	CONTESTANT	Contestant	Y
290796	488710	18475	COACH	Coach	Y
521633	488710	18475	CONTESTANT	Contestant	Y
422227	488717	18475	CONTESTANT	Contestant	Y
511259	488717	18475	CONTESTANT	Contestant	Y
511262	488717	18475	CONTESTANT	Contestant	Y
210898	488717	18475	COACH	Coach	Y
581349	488603	18475	CONTESTANT	Contestant	Y
440729	488603	18475	CONTESTANT	Contestant	Y
69826	488603	18475	COACH	Coach	Y
522421	488603	18475	CONTESTANT	Contestant	Y
581965	488599	18475	CONTESTANT	Contestant	Y
312208	488599	18475	CONTESTANT	Contestant	Y
383363	488599	18475	CONTESTANT	Contestant	Y
379307	488599	18475	COACH	Coach	Y
367068	488850	18475	CONTESTANT	Contestant	N
433614	488850	18475	CONTESTANT	Contestant	Y
581247	488850	18475	CONTESTANT	Contestant	Y
16009	488850	18475	COACH	Coach	Y
582121	488776	18475	CONTESTANT	Contestant	Y
582122	488776	18475	CONTESTANT	Contestant	Y
582123	488776	18475	CONTESTANT	Contestant	Y
580175	488776	18475	COACH	Coach	Y
516734	488600	18475	CONTESTANT	Contestant	Y
530609	488600	18475	COACH	Coach	Y
580716	488600	18475	CONTESTANT	Contestant	Y
580717	488600	18475	CONTESTANT	Contestant	Y
582119	488596	18475	CONTESTANT	Contestant	Y
333923	488596	18475	CONTESTANT	Contestant	Y
379307	488596	18475	COACH	Coach	Y
372628	488596	18475	CONTESTANT	Contestant	Y
581745	488791	18475	CONTESTANT	Contestant	Y
519044	488791	18475	CONTESTANT	Contestant	Y
65637	488791	18475	COACH	Coach	Y
581742	488791	18475	CONTESTANT	Contestant	Y
584571	488607	18475	CONTESTANT	Contestant	Y
526729	488607	18475	CONTESTANT	Contestant	Y
584574	488607	18475	CONTESTANT	Contestant	Y
455022	488607	18475	COACH	Coach	Y
43698	488716	18475	COACH	Coach	Y
579834	488716	18475	CONTESTANT	Contestant	Y
579835	488716	18475	CONTESTANT	Contestant	Y
521520	488716	18475	CONTESTANT	Contestant	Y
210898	488790	18475	COACH	Coach	Y
581205	488790	18475	CONTESTANT	Contestant	Y
581206	488790	18475	CONTESTANT	Contestant	Y
581200	488790	18475	CONTESTANT	Contestant	Y
27	488598	18475	COACH	Coach	Y
15386	488598	18475	COCOACH	Cocoach	Y
343508	488598	18475	CONTESTANT	Contestant	Y
375771	488598	18475	CONTESTANT	Contestant	Y
439612	488598	18475	CONTESTANT	Contestant	Y
223429	488837	18475	COACH	Coach	Y
524584	488837	18475	CONTESTANT	Contestant	Y
581540	488837	18475	CONTESTANT	Contestant	Y
581541	488837	18475	CONTESTANT	Contestant	Y
522161	488767	18475	CONTESTANT	Contestant	Y
582607	488767	18475	CONTESTANT	Contestant	Y
582606	488767	18475	CONTESTANT	Contestant	Y
10812	488767	18475	COACH	Coach	Y
580708	488722	18475	CONTESTANT	Contestant	Y
190805	488722	18475	COACH	Coach	Y
580314	488722	18475	CONTESTANT	Contestant	Y
522685	488722	18475	CONTESTANT	Contestant	Y
285369	488712	18475	COACH	Coach	Y
587818	488712	18475	CONTESTANT	Contestant	Y
373467	488712	18475	CONTESTANT	Contestant	Y
581633	488712	18475	CONTESTANT	Contestant	Y
375786	488849	18475	CONTESTANT	Contestant	Y
289311	488849	18475	COACH	Coach	Y
522818	488849	18475	CONTESTANT	Contestant	Y
582624	488849	18475	CONTESTANT	Contestant	Y
507145	488709	18475	CONTESTANT	Contestant	Y
374091	488709	18475	COACH	Coach	Y
445376	488709	18475	CONTESTANT	Contestant	Y
507151	488709	18475	CONTESTANT	Contestant	Y
440896	488789	18475	CONTESTANT	Contestant	Y
582251	488789	18475	CONTESTANT	Contestant	Y
582202	488789	18475	CONTESTANT	Contestant	Y
50009	488789	18475	COACH	Coach	Y
522694	488721	18475	CONTESTANT	Contestant	Y
580317	488721	18475	CONTESTANT	Contestant	Y
580311	488721	18475	CONTESTANT	Contestant	Y
190805	488721	18475	COACH	Coach	Y
171147	488771	18475	COACH	Coach	Y
581254	488771	18475	CONTESTANT	Contestant	Y
581258	488771	18475	CONTESTANT	Contestant	Y
108059	488771	18475	COCOACH	Cocoach	N
581256	488771	18475	CONTESTANT	Contestant	Y
434613	488772	18475	CONTESTANT	Contestant	Y
434620	488772	18475	CONTESTANT	Contestant	Y
434624	488772	18475	CONTESTANT	Contestant	Y
269974	488772	18475	COACH	Coach	Y
27	488597	18475	COACH	Coach	Y
439564	488597	18475	CONTESTANT	Contestant	Y
514451	488597	18475	CONTESTANT	Contestant	Y
15412	488597	18475	COCOACH	Cocoach	Y
346030	488597	18475	CONTESTANT	Contestant	Y
375444	488601	18475	CONTESTANT	Contestant	Y
501477	488601	18475	CONTESTANT	Contestant	Y
451800	488601	18475	COACH	Coach	Y
395152	488601	18475	CONTESTANT	Contestant	Y
436438	488723	18475	CONTESTANT	Contestant	Y
436459	488723	18475	CONTESTANT	Contestant	Y
440969	488723	18475	CONTESTANT	Contestant	Y
95432	488723	18475	COACH	Coach	Y
6745	488713	18475	COACH	Coach	Y
388213	488713	18475	CONTESTANT	Contestant	Y
583846	488713	18475	CONTESTANT	Contestant	Y
453797	488713	18475	CONTESTANT	Contestant	Y
