team,1,norway-park,plant-sweden,farm-peru
team,2,sudden-fail,news-except,blood-jordan
team,3,around-today,egypt-money,better-gray
team,4,slept-double,shoes-dish,pair-three
team,5,boat-friend,ring-feet,return-hear
team,6,pulled-long,meet-fair,sorry-moon
team,7,sugar-bottom,person-pain,ring-russia
team,8,voice-both,course-french,start-other
team,9,anger-summer,blue-island,place-read
team,10,engine-madrid,wear-into,floor-step
team,11,flow-waves,mine-rock,board-touch
team,12,noun-said,hurry-back,seat-sugar
team,13,killed-chance,hill-spent,happy-line
team,14,suffer-method,plan-threw,cause-rule
team,15,near-common,soon-sweden,idea-until
team,16,must-ground,device-life,scene-friend
team,17,ready-then,plant-shoes,shoes-escape
team,18,wife-number,agree-best,slept-season
team,19,finish-when,lifted-forest,throw-needle
team,20,before-heat,itself-keep,moscow-fiji
team,21,degree-team,grow-ship,music-bell
team,22,desert-india,very-more,being-greece
team,23,legs-wash,stream-truck,nice-phrase
team,24,seven-says,choose-clock,wedge-horse
team,25,woman-small,pain-land,food-report
team,26,kenya-august,fight-mile,proud-sand
team,27,appear-object,joined-very,read-likely
team,28,venus-slow,beat-fire,share-wide
team,29,able-wife,blow-ladder,done-sense
team,30,spring-coast,could-early,likely-poor
team,31,dollar-heart,feed-blue,chart-does
team,32,past-neck,could-busy,able-ship
team,33,clock-board,dear-escape,well-later
team,34,young-bridge,kind-kiss,canada-broad
team,35,spoke-cried,oxygen-serve,firm-sign
team,36,round-south,learn-within,spell-escape
team,37,short-with,winter-animal,future-broke
team,38,smoke-world,joined-wind,star-metal
team,39,major-quite,foot-march,afraid-truck
team,40,august-sent,done-method,across-record
team,41,hold-heard,effect-fine,corner-quick
team,42,design-nearly,help-both,more-like
team,43,peace-friend,choose-spoke,finish-reply
team,44,north-heard,honor-scene,copy-hard
team,45,floor-shore,north-ocean,plains-park
team,46,would-help,report-huge,ball-iron
team,47,joined-took,crops-must,night-draw
team,48,shall-where,rich-pulled,north-travel
team,49,grass-date,alaska-wedge,melody-guard
team,50,double-quiet,father-told,doctor-hour
team,51,shape-corn,below-worth,seat-direct
team,52,than-taste,should-quick,ought-among
team,53,area-form,pair-twelve,lend-tail
team,54,afraid-safe,love-hers,sound-school
team,55,full-wide,borrow-before,moon-some
team,56,bill-wheat,name-thank,dance-afraid
team,57,suffix-glad,govern-plants,sudden-grow
team,58,today-speed,where-raised,hair-under
team,59,sweet-wales,ought-forget,france-chief
team,60,planet-grain,have-broad,them-cover
team,61,inches-basket,night-teach,word-bone
team,62,could-trust,them-sign,coat-needle
team,63,feel-party,behind-office,apple-block
team,64,brazil-berlin,none-cannot,labor-nepal
team,65,nine-suffer,stock-water,settle-high
team,66,firm-hawaii,nail-thin,middle-person
team,67,health-play,thank-corner,stay-light
team,68,road-mister,first-animal,wheat-more
team,69,caught-monday,mean-duty,left-sharp
team,70,later-system,three-fruit,speak-mile
team,71,pounds-fiji,even-tail,live-shoe
team,72,degree-china,device-spell,train-thin
team,73,decide-cotton,rest-entire,rhythm-wheat
team,74,study-branch,august-view,stood-help
team,75,show-gone,jordan-unit,basket-signal
team,76,tokyo-engine,clean-horse,chair-cannot
team,77,warm-thus,door-flier,front-meat
team,78,show-ride,while-cents,tokyo-team
team,79,fool-moment,notice-board,among-lower
team,80,broken-hand,steel-last,right-jump
team,81,madrid-twelve,look-touch,drop-beside
team,82,major-wrote,body-just,show-next
team,83,wales-were,bridge-happy,teach-show
team,84,rain-week,sorry-tiny,tries-nature
team,85,child-bottom,letter-steel,birds-call
team,86,which-desire,tiny-reply,amount-judge
team,87,column-panama,grave-twenty,gather-moon
team,88,hole-sweden,cannot-then,fresh-turn
team,89,about-done,help-guide,ears-during
team,90,april-monday,spend-drive,queen-wave
team,91,congo-bring,needle-fruit,daily-thus
team,92,crowd-five,seed-school,string-well
team,93,madrid-wear,view-middle,fell-island
team,94,china-cake,mexico-came,again-ought
team,95,block-lord,choose-table,serve-feet
team,96,little-store,iron-dried,sister-year
team,97,metal-france,finger-when,road-grew
team,98,arrive-silver,would-noun,fail-earth
team,99,road-allow,care-grow,engine-same
team,100,picked-divide,come-favor,paris-heart
team,101,forty-iron,hard-duck,fact-seven
team,102,week-tree,alaska-right,ever-dream
team,103,around-mine,island-chance,resent-course
team,104,cool-many,congo-first,trust-once
team,105,wear-done,offer-moscow,baby-sudden
team,106,went-picked,love-cows,green-whose
team,107,worth-space,page-total,lose-name
team,108,around-slept,record-snow,green-cool
team,109,seat-needle,think-join,sick-list
team,110,paid-little,often-soil,mean-burn
team,111,pass-hole,dinner-first,fear-feed
team,112,region-rather,table-north,center-lower
team,113,rhythm-galaxy,except-enough,peace-duck
team,114,branch-window,except-circle,ought-birds
team,115,famous-feet,ohio-worn,shoes-mars
team,116,pair-mind,hope-fine,nepal-window
team,117,sweet-grown,earth-block,rolled-heavy
team,118,equal-race,manner-spoke,hill-desire
team,119,cover-figure,school-wings,major-table
team,120,angle-many,store-game,march-ship
team,121,enemy-blood,thin-india,felt-write
team,122,object-effect,worn-tiny,animal-dare
team,123,plan-sleep,felt-india,gentle-cents
team,124,sweden-verb,weak-sense,cloud-main
team,125,game-suffix,field-engine,brazil-slept
team,126,rest-join,being-dish,burn-catch
team,127,wise-beat,effect-rhythm,
team,128,warsaw-bird,force-rhythm,kept-effort
team,129,west-circle,before-gives,close-sand
team,130,song-clear,value-berlin,honor-weight
team,131,beside-fool,guide-report,korea-church
team,132,dish-tore,doctor-teach,pluto-wife
team,133,center-size,finish-crowd,year-since
team,134,jump-divide,object-india,guess-rather
team,135,fool-touch,wash-ears,report-five
team,136,island-beauty,tried-fruit,melody-maybe
team,137,cover-short,blow-will,cows-board
team,138,flat-since,from-soil,kind-star
team,139,glass-mouth,west-carry,cross-stone
team,140,lead-around,note-corner,about-indeed
team,141,deep-basket,malta-double,joined-wheel
team,142,report-check,across-reply,past-cake
team,143,open-took,when-amount,pure-baby
team,144,month-back,keep-wore,legs-really
team,145,crops-nail,ought-fresh,kept-behind
team,146,grass-these,broad-chile,wide-took
team,147,ridden-died,should-sure,stream-school
team,148,king-bean,build-this,work-press
team,149,monday-deep,year-paper,column-mark
team,150,drop-mother,lower-modern,base-venus
team,151,true-board,raised-known,bone-need
team,152,care-play,athens-guess,news-clock
team,153,speak-terms,allow-lose,nine-rope
team,154,flat-plural,resent-gain,match-plain
team,155,edge-city,africa-shoes,
team,156,hope-king,seat-hello,always-fear
team,157,soon-close,miss-large,twelve-lend
team,158,snow-went,such-easy,make-wales
team,159,board-wales,havana-went,wear-hang
team,160,tall-give,human-gentle,fifty-iron
team,161,borrow-these,weak-green,will-quick
team,162,wheels-chart,visit-fellow,free-fence
team,163,clean-nepal,jordan-cannot,party-thick
team,164,heavy-soon,sold-away,under-poor
team,165,niece-bottom,dinner-gone,much-lower
team,166,scale-whole,beauty-ever,queen-shown
team,167,hang-device,work-peru,bean-fifty
team,168,please-paper,uranus-main,stop-sorry
team,169,love-more,land-seeds,matter-cook
team,170,need-nepal,return-ocean,plural-fight
judge,1,wear-nevada,,
judge,2,trip-arms,,
judge,3,huge-doubt,,
judge,4,sweet-pure,,
judge,5,chance-laugh,,
system,1,very-self,,
system,2,suit-wall,,
system,3,oslo-waves,,
system,4,wear-beside,,
system,5,close-eggs,,
system,6,corner-since,,
system,7,sweet-short,,
system,8,miss-catch,,
system,9,winter-panama,,
system,10,money-poland,,
system,11,guess-other,,
system,12,happen-total,,
system,13,back-race,,
system,14,shine-panama,,
system,15,dream-tried,,
